{
  "TSHIRT": {
    "quantity": 0,
    "price": 20,
    "total": 0
  },
  "CAP": {
    "quantity": 0,
    "price": 5,
    "total": 0
  },
  "MUG": {
    "quantity": 0,
    "price": 10,
    "total": 0
  }
}
