// Jest Snapshot v1, https://goo.gl/fbAQLP

exports[`NumberInput should render correctly with required props 1`] = `
<div
  className="number-input"
>
  <span
    className="symbol symbol-minus"
    onClick={[Function]}
  >
    -
  </span>
  <input
    className="input"
    name="inputName"
    onChange={[Function]}
    type="number"
    value={0}
  />
  <span
    className="symbol symbol-plus"
    onClick={[Function]}
  >
    +
  </span>
</div>
`;
